{
	"output_min_value" : "minOutVal",
	"output_max_value" : "maxOutVal",
	"video_rotation_angle" : "rotationAngle",
	"video_clipping_threshold" : "clipThresh",
	"video_feedback_level" : "feedbackLevel",
	"wave_speed" : "waveSpeed",
	"noisy_x_speed" : "noisyXSpeed",
	"noisy_y_speed" : "noisyYSpeed",
	"noisy_scale" : "noisyScale",
	"noisy_x_scale" : "noisyScaleX",
	"noisy_y_scale" : "noisyScaleY",
	"snake_speed" : "snakeSpeed",
	"snake_size" : "snakeSize",
	"tempo" : "tempo"
}
