33

mapping
id	channel	X	Y	Z
1	1	11.2	6.9	0.
2	2	12.3	4.2	0.
3	3	13.5	1.4	0.
4	4	15.2	1.	0.
5	5	17.5	2.9	0.
6	6	18.8	4.	0.
7	7	12.7	6.6	0.
8	8	14.8	4.5	0.
9	9	14.2	2.9	0.
10	47	11.4	1.9	0.
11	11	8.6	1.	0.
13	13	6.4	4.2	0.
14	14	5.3	1.4	0.
15	45	3.6	1.	0.
16	16	1.3	2.9	0.
17	46	0.1	4.	0.	
18	18	6.1	6.6	0.
19	19	4.	4.5	0.
20	20	4.5	2.9	0.
21	21	7.3	1.9	0.
22	22	10.2	1.	0.
23	23	12.1	11.	0.
24	24	14.7	12.4	0.
25	25	17.4	13.9	0.
26	26	20.	15.4	0.
27	27	22.6	16.8	0.
28	28	10.4	11.	0.
29	29	10.5	14.	0.
30	30	10.6	17.	0.
31	31	10.7	20.	0.
32	32	10.8	23.	0.
33	48	10.9	26.	0.

field
X	Y	step
28.	28.	0.1
