37

mapping
id	channel	X	Y	Z
1	3	2.8	1.4	0.
2	19	3.2	0.8	0.
3	20	3.5	0.4	0.
4	18	4.8	3.3	0.
5	37	5.	0.5	0.
6	36	6.2	2.	0.
7	16	6.7	1.2	0.
8	4	7.4	0.5	0.
9	17	9.2	0.5	0.
10	32	9.4	1.8	0.
11	29	10.	1.4	0.
12	1	10.7	0.9	0.
13	2	11.3	0.5	0.
14	15	11.3	2.8	0.
15	34	11.9	2.1	0.
16	35	13.4	0.6	0.
17	23	13.6	2.5	0.	
18	33	14.4	0.8	0.
19	21	14.4	2.3	0.
20	30	15.	1.	0.
21	27	15.3	2.3	0.
22	24	17.	1.	0.
23	31	17.4	1.8	0.
24	6	17.8	0.8	0.
25	5	18.1	1.6	0.
26	8	18.6	2.6	0.
27	13	18.7	0.4	0.
28	28	19.3	0.5	0.
29	26	19.5	1.5	0.
30	7	20.4	0.5	0.
31	12	20.8	0.5	0.
32	14	21.5	1.4	0.
33	25	21.8	2.	0.
34	10	22.3	1.2	0.
35	11	22.7	1.7	0.
36	22	23.7	1.4	0.
37	9	25.5	1.8	0.

field
X	Y	step
30.	4.	0.1
