23

mapping
id	channel	X	Y	Z
1	1	7.	14.	0.
2	2	8.75	15.	0.
3	3	8.5	17.	0.
4	4	7.	17.8	0.
5	5	5.8	11.2	0.
6	6	6.8	9.	0.
7	7	8.	7.	0.
8	8	8.8	5.	0.
9	9	9.2	3.	0.
10	10	5.	9.	0.
11	11	5.5	5.5	0.
12	12	6.	2.	0.
13	13	6.8	1.2	0.
14	14	7.5	4.	0.
15	15	4.	11.	0.
16	16	3.2	8.2	0.
17	17	2.1	6.	0.	
18	18	1.	3.7	0.
19	19	3.	10.5	0.
20	20	1.2	8.2	0.
21	21	2.	8.	0.
22	22	4.2	9.4	0.
23	23	8.2	11.7	0.

field
X	Y	step
10.	19.	0.1
