#nbLights
33

#mapping
#id	channel	X	Y	Z
1	1	5.4	4.25	0.
2	2	4.8	3.25	0.
3	17	3.6	3.2	0.
4	18	3.1	4.25	0.
5	33	3.6	5.2	0.
6	34	4.8	5.2	0.
7	11	6.	5.2	0.
8	27	4.25	2.25	0.
9	43	2.5	5.2	0.
10	42	2.0	6.2	0.
11	40	2.5	7.2	0.
12	37	6.	7.2	0.
13	35	6.5	6.2	0.
14	10	7.1	5.2	0.
15	8	7.7	4.25	0.
16	5	5.9	1.3	0.
17	3	4.8	1.3	0.	
18	26	3.7	1.3	0.
19	24	2.5	1.3	0.
20	21	0.8	4.25	0.
21	19	1.4	5.2	0.
22	41	1.4	7.2	0.
23	39	3.1	8.2	0.
24	38	5.4	8.2	0.
25	36	7.1	7.2	0.
26	9	8.3	5.2	0.
27	7	8.3	3.2	0.
28	6	7.1	1.3	0.
29	4	5.4	0.3	0.
30	25	3.1	0.3	0.
31	23	1.4	1.3	0.
32	22	0.2	3.2	0.
33	20	0.2	5.2	0.

#field
#X	Y	step
8.5	8.5	0.1

#renderer
zoom	12
