#nbLights
10

#mapping
#id	channel	X	Y	Z
1 1 0.889 1.764 0.000
2 2 1.708 1.292 0.000
3 3 2.659 1.427 0.000
4 4 3.279 2.056 0.000
5 5 4.230 2.281 0.000
6 6 5.181 1.944 0.000
7 7 6.310 2.079 0.000
8 8 7.018 2.753 0.000
9 9 8.013 3.292 0.000
10 10 9.053 3.022 0.000

#field
#X	Y	step
11.000	4.000	0.100

#renderer
zoom	10
