6
4
10
20
11
18
21
35
25
42
28
27
5
32
15
17
3
12
16
36
31
7
38
1
33
37
41
39
24
30
13
9
2
23
22
29
19
14
8
34
40
26
19
14
8
34
40
26
29
13
9
2
23
22
24
30
5
32
15
17
3
12
16
36
31
7
38
1
33
37
41
39
28
27
6
4
10
20
11
18
21
35
25
42
28
27